<?xml version="1.0" encoding="utf-8"?>
<!-- Generator: Adobe Illustrator 16.0.0, SVG Export Plug-In . SVG Version: 6.00 Build 0)  -->
<!DOCTYPE svg PUBLIC "-//W3C//DTD SVG 1.1//EN" "http://www.w3.org/Graphics/SVG/1.1/DTD/svg11.dtd">
<svg version="1.1" id="Layer_1" xmlns="http://www.w3.org/2000/svg" xmlns:xlink="http://www.w3.org/1999/xlink" x="0px" y="0px"
	 width="512px" height="512px" viewBox="0 0 512 512" enable-background="new 0 0 512 512" xml:space="preserve">
<path d="M426.671,0H85.343C38.406,0,0,38.405,0,85.345v341.312C0,473.625,38.406,512,85.343,512h341.328
	C473.609,512,512,473.625,512,426.655V85.345C512,38.405,473.609,0,426.671,0z"/>
<g>
	<circle fill="#FFFFFF" cx="368.384" cy="274.403" r="24.231"/>
	<path fill="#FFFFFF" d="M481.02,161.79h-71.267c-40.161-24.049-94.344-38.805-153.982-38.805S141.95,137.74,101.789,161.79H30.98
		l25.05,41.807c-15.662,19.344-25.05,43.977-25.05,70.806c0,62.194,50.418,112.613,112.613,112.613
		c34.255,0,64.934-15.298,85.588-39.431l-0.792,2.461l27.818,27.387l28.751-27.387v-0.001
		c20.603,22.709,50.348,36.971,83.426,36.971c62.195,0,112.614-50.419,112.614-112.613c0-26.821-9.384-51.448-25.038-70.79
		L481.02,161.79z M143.593,362.623c-48.723,0-88.221-39.498-88.221-88.221s39.498-88.22,88.221-88.22
		c48.724,0,88.22,39.497,88.22,88.22S192.317,362.623,143.593,362.623z M255.823,265.11c-4.315-52.819-45.076-95.316-97.094-102.305
		c27.976-12.745,61.283-18.267,97.042-18.267c35.803,0,69.146,5.537,97.142,18.314c-52.112,7.161-92.856,49.969-96.824,103.033
		L255.823,265.11z M368.384,362.623c-48.724,0-88.221-39.498-88.221-88.221s39.497-88.22,88.221-88.22s88.22,39.497,88.22,88.22
		S417.108,362.623,368.384,362.623z"/>
	<path fill="#FFFFFF" d="M368.384,218.05c-31.123,0-56.354,25.229-56.354,56.353s25.23,56.354,56.354,56.354
		c31.122,0,56.353-25.23,56.353-56.354S399.506,218.05,368.384,218.05z M368.384,314.694c-22.253,0-40.293-18.039-40.293-40.292
		s18.04-40.292,40.293-40.292s40.292,18.039,40.292,40.292S390.637,314.694,368.384,314.694z"/>
	<circle fill="#FFFFFF" cx="143.593" cy="274.403" r="24.231"/>
	<path fill="#FFFFFF" d="M143.593,218.05c-31.123,0-56.353,25.229-56.353,56.353s25.229,56.354,56.353,56.354
		c31.123,0,56.354-25.23,56.354-56.354S174.716,218.05,143.593,218.05z M143.593,314.694c-22.253,0-40.292-18.039-40.292-40.292
		s18.039-40.292,40.292-40.292c22.254,0,40.293,18.039,40.293,40.292S165.847,314.694,143.593,314.694z"/>
</g>
</svg>
