<?xml version="1.0" encoding="utf-8"?>
<!-- Generator: Adobe Illustrator 16.0.0, SVG Export Plug-In . SVG Version: 6.00 Build 0)  -->
<!DOCTYPE svg PUBLIC "-//W3C//DTD SVG 1.1//EN" "http://www.w3.org/Graphics/SVG/1.1/DTD/svg11.dtd">
<svg version="1.1" id="Layer_1" xmlns="http://www.w3.org/2000/svg" xmlns:xlink="http://www.w3.org/1999/xlink" x="0px" y="0px"
	 width="512px" height="512px" viewBox="0 0 512 512" enable-background="new 0 0 512 512" xml:space="preserve">
<path d="M287.935,512H192V256h-64v-88.225l64-0.029l-0.104-51.976C191.896,43.794,211.413,0,296.195,0h70.59v88.242h-44.115
	c-33.018,0-34.604,12.328-34.604,35.342l-0.131,44.162h79.345l-9.352,88.227L288,256L287.935,512z"/>
</svg>
